<svg width="12" height="7" viewBox="0 0 12 7" fill="none" xmlns="http://www.w3.org/2000/svg">
<path d="M6.00006 0.494104C6.25606 0.494104 6.51206 0.590951 6.70706 0.783657L11.4141 5.43528L10.0001 6.83264L6.00006 2.8797L2.00006 6.83264L0.586063 5.43528L5.29306 0.783657C5.48806 0.590951 5.74406 0.494104 6.00006 0.494104Z" fill="#111111"/>
</svg>
