<svg width="28" height="28" viewBox="0 0 28 28" fill="none" xmlns="http://www.w3.org/2000/svg">
<path fill-rule="evenodd" clip-rule="evenodd" d="M12.9999 22.658C13.3633 23.0214 13.9525 23.0214 14.3159 22.658L22.6079 14.3651C22.9984 13.9746 22.9984 13.3414 22.6079 12.9509L14.3159 4.65803C13.9525 4.29462 13.3633 4.2946 12.9999 4.658C12.6365 5.0214 12.6366 5.61059 13 5.97396L19.9777 12.9508C20.3683 13.3414 20.3683 13.9746 19.9777 14.3651L13 21.342C12.6366 21.7054 12.6365 22.2946 12.9999 22.658Z" fill="white"/>
<path fill-rule="evenodd" clip-rule="evenodd" d="M22 13.6582C22 13.1059 21.5523 12.6582 21 12.6582H6C5.44772 12.6582 5 13.1059 5 13.6582C5 14.2105 5.44772 14.6582 6 14.6582H21C21.5523 14.6582 22 14.2105 22 13.6582Z" fill="white"/>
</svg>
