<svg width="106" height="40" viewBox="0 0 106 40" fill="none" xmlns="http://www.w3.org/2000/svg">
<path fill-rule="evenodd" clip-rule="evenodd" d="M51.973 24.3283L53.252 26.3492C50.828 27.8311 48.5386 28.2353 45.8454 28.2353C42.0748 28.2353 39.5163 26.686 39.5163 23.5874C39.5163 21.7686 40.7282 20.253 42.5798 19.5793C40.8966 18.771 39.9876 17.3901 39.9876 16.0429C39.9876 12.8769 42.7145 11.4286 46.2494 11.4286C48 11.4286 50.727 11.7991 53.083 13.1463L51.939 15.2008C49.9862 14.3251 47.899 13.921 46.4514 13.921C43.9938 13.9546 42.7482 14.8304 42.7482 16.2449C42.7482 17.3227 43.7245 18.5689 46.182 18.5689L49.0773 18.5689L49.0773 20.7919L45.8454 20.7919C43.2195 20.7919 42.3778 22.2738 42.3778 23.3516C42.3778 24.9683 43.9265 25.7429 46.5187 25.7429C48.4376 25.7429 50.155 25.3724 51.973 24.3283ZM15.6476 28.0332L15.6476 11.6307L18.8119 11.6307L24.4679 21.971L24.5353 21.971L30.225 11.6307L33.3556 11.6307L33.3556 28.0332L30.7297 28.0332L30.7297 16.2449L30.6624 16.2449L25.7471 25.1704L23.2225 25.1704L18.3408 16.2786L18.2735 16.2786L18.2735 28.0332L15.6476 28.0332ZM62.207 23.3516C62.207 26.6186 63.419 28.2353 66.314 28.2353C67.686 28.2353 68.852 27.987 69.891 27.5876L69.295 25.1715C68.628 25.4784 67.886 25.7093 67.055 25.7093C65.203 25.7093 64.934 24.6315 64.934 22.6443L64.934 13.9883L70.791 13.9883L70.791 11.6307L57.393 11.6307L57.393 13.9883L62.207 13.9883L62.207 23.3516ZM82.339 28.2353C77.895 28.2353 74.831 24.8672 74.831 19.9498C74.831 15.0998 77.962 11.4286 82.541 11.4286C84.965 11.4286 87.156 11.9328 88.331 14.2231L88.432 14.2231L88.903 11.6307L91.193 11.6307L90.418 19.613L90.418 23.2169C90.418 24.6988 90.587 25.7093 91.765 25.7093C92.135 25.7093 92.573 25.6419 92.91 25.5072L93.213 27.7638C92.506 28.0332 91.832 28.2353 90.856 28.2353C89.139 28.2353 88.287 26.6193 88.085 25.0026C87.129 27.1578 85.213 28.2353 82.339 28.2353ZM88.129 19.9498C87.793 23.419 85.537 25.7429 82.642 25.7429C79.578 25.7429 77.626 23.2506 77.626 19.9498C77.626 16.3123 79.948 13.921 82.911 13.921C86.076 13.921 88.096 16.3797 88.129 19.9498Z" fill="black"/>
<path fill-rule="evenodd" clip-rule="evenodd" d="M86.298 -3.00216e-09L19.702 -6.85398e-10C8.8209 -3.06864e-10 3.11505e-10 8.9543 6.95765e-10 20C1.08003e-09 31.0457 8.8209 40 19.702 40L86.298 40C97.179 40 106 31.0457 106 20C106 8.9543 97.179 -3.38069e-09 86.298 -3.00216e-09ZM3.0286 20C3.0286 10.4394 10.681 2.6891 20.1207 2.6891L85.879 2.6891C95.319 2.6891 102.971 10.4394 102.971 20C102.971 29.5606 95.319 37.3109 85.879 37.3109L20.1207 37.3109C10.681 37.3109 3.0286 29.5606 3.0286 20Z" fill="black"/>
</svg>
